…
あとは名前でgroup_byしてsummariseすればEAPとかは出るんですが・・・

```
> df %>% rowid_to_column("iter") %>% pivot_longer(-iter) %>% 
+   group_by(name) %>% summarise(EAP = mean(value))
# A tibble: 1,013 × 2
   name         EAP
   <chr>      <dbl>
 1 lp__     -492.  
 2 lp.1.1    -12.6 
 3 lp.1.2     -1.82
 4 lp.10.1    -1.50
 5 lp.10.2    -5.68
 6 lp.100.1   -1.14
 7 lp.100.2  -10.3 
 8 lp.101.1   -1.25
 9 lp.101.2  -11.0 
10 lp.102.1   -1.37
# … with 1,003 more rows
```
…
